Making cheese
…
## Loading required package: cheese

Heart disease dataset

This data comes from the UCI Machine
Learning Repository, containing a collection of demographic and
clinical characteristics from 303 patients. It was subsequently
processed and cleaned into a format suitable for analysis–details of
which can be found here.

#Look at the data
heart_disease

## # A tibble: 303 × 9
##      Age Sex    ChestPain           BP Cholest…¹ Blood…² Maxim…³ Exerc…⁴ Heart…⁵
##    <dbl> <fct>  <fct>            <dbl>     <dbl> <lgl>     <dbl> <fct>   <fct>  
##  1    63 Male   Typical angina     145       233 TRUE        150 No      No     
##  2    67 Male   Asymptomatic       160       286 FALSE       108 Yes     Yes    
##  3    67 Male   Asymptomatic       120       229 FALSE       129 Yes     Yes    
##  4    37 Male   Non-anginal pain   130       250 FALSE       187 No      No     
##  5    41 Female Atypical angina    130       204 FALSE       172 No      No     
##  6    56 Male   Atypical angina    120       236 FALSE       178 No      No     
##  7    62 Female Asymptomatic       140       268 FALSE       160 No      Yes    
##  8    57 Female Asymptomatic       120       354 FALSE       163 Yes     No     
##  9    63 Male   Asymptomatic       130       254 FALSE       147 No      Yes    
## 10    53 Male   Asymptomatic       140       203 TRUE        155 Yes     Yes    
## # … with 293 more rows, and abbreviated variable names ¹​Cholesterol,
## #   ²​BloodSugar, ³​MaximumHR, ⁴​ExerciseInducedAngina, ⁵​HeartDisease
…
divide() is used to split up a data frame into a list of
subsets. Suppose you want to split the example data set by sex and heart
disease status:

div_dat <-
  heart_disease %>%
    divide(
      Sex,
      HeartDisease
    )
div_dat

## $Female
## $Female$No
## # A tibble: 72 × 7
##      Age ChestPain           BP Cholesterol BloodSugar MaximumHR ExerciseInduc…¹
##    <dbl> <fct>            <dbl>       <dbl> <lgl>          <dbl> <fct>          
##  1    41 Atypical angina    130         204 FALSE            172 No             
##  2    57 Asymptomatic       120         354 FALSE            163 Yes            
##  3    56 Atypical angina    140         294 FALSE            153 No             
##  4    48 Non-anginal pain   130         275 FALSE            139 No             
##  5    58 Typical angina     150         283 TRUE             162 No             
##  6    50 Non-anginal pain   120         219 FALSE            158 No             
##  7    58 Non-anginal pain   120         340 FALSE            172 No             
##  8    66 Typical angina     150         226 FALSE            114 No             
##  9    69 Typical angina     140         239 FALSE            151 No             
## 10    71 Atypical angina    160         302 FALSE            162 No             
## # … with 62 more rows, and abbreviated variable name ¹​ExerciseInducedAngina
## 
## $Female$Yes
## # A tibble: 25 × 7
##      Age ChestPain           BP Cholesterol BloodSugar MaximumHR ExerciseInduc…¹
##    <dbl> <fct>            <dbl>       <dbl> <lgl>          <dbl> <fct>          
##  1    62 Asymptomatic       140         268 FALSE            160 No             
##  2    65 Asymptomatic       150         225 FALSE            114 No             
##  3    61 Asymptomatic       130         330 FALSE            169 No             
##  4    51 Asymptomatic       130         305 FALSE            142 Yes            
##  5    62 Asymptomatic       160         164 FALSE            145 No             
##  6    60 Asymptomatic       150         258 FALSE            157 No             
##  7    61 Asymptomatic       145         307 FALSE            146 Yes            
##  8    43 Asymptomatic       132         341 TRUE             136 Yes            
##  9    62 Non-anginal pain   130         263 FALSE             97 No             
## 10    63 Asymptomatic       150         407 FALSE            154 No             
## # … with 15 more rows, and abbreviated variable name ¹​ExerciseInducedAngina
## 
## 
## $Male
## $Male$No
## # A tibble: 92 × 7
##      Age ChestPain           BP Cholesterol BloodSugar MaximumHR ExerciseInduc…¹
##    <dbl> <fct>            <dbl>       <dbl> <lgl>          <dbl> <fct>          
##  1    63 Typical angina     145         233 TRUE             150 No             
##  2    37 Non-anginal pain   130         250 FALSE            187 No             
##  3    56 Atypical angina    120         236 FALSE            178 No             
##  4    57 Asymptomatic       140         192 FALSE            148 No             
##  5    44 Atypical angina    120         263 FALSE            173 No             
##  6    52 Non-anginal pain   172         199 TRUE             162 No             
##  7    57 Non-anginal pain   150         168 FALSE            174 No             
##  8    54 Asymptomatic       140         239 FALSE            160 No             
##  9    49 Atypical angina    130         266 FALSE            171 No             
## 10    64 Typical angina     110         211 FALSE            144 Yes            
## # … with 82 more rows, and abbreviated variable name ¹​ExerciseInducedAngina
## 
## $Male$Yes
## # A tibble: 114 × 7
##      Age ChestPain           BP Cholesterol BloodSugar MaximumHR ExerciseInduc…¹
##    <dbl> <fct>            <dbl>       <dbl> <lgl>          <dbl> <fct>          
##  1    67 Asymptomatic       160         286 FALSE            108 Yes            
##  2    67 Asymptomatic       120         229 FALSE            129 Yes            
##  3    63 Asymptomatic       130         254 FALSE            147 No             
##  4    53 Asymptomatic       140         203 TRUE             155 Yes            
##  5    56 Non-anginal pain   130         256 TRUE             142 Yes            
##  6    48 Atypical angina    110         229 FALSE            168 No             
##  7    58 Atypical angina    120         284 FALSE            160 No             
##  8    58 Non-anginal pain   132         224 FALSE            173 No             
##  9    60 Asymptomatic       130         206 FALSE            132 Yes            
## 10    40 Asymptomatic       110         167 FALSE            114 Yes            
## # … with 104 more rows, and abbreviated variable name ¹​ExerciseInducedAngina
…
fasten() allows you to take a list structure that
contains data frames at an arbitrary depth, and roll them back up into a
single data frame. This is useful when a statistical process needs to be
mapped to many subsets, and you want to be able to easily collect the
results without repeatedly binding data. You can call the function with
the divided data from above:

div_dat %>%
  fasten()

## # A tibble: 303 × 7
##      Age ChestPain           BP Cholesterol BloodSugar MaximumHR ExerciseInduc…¹
##    <dbl> <fct>            <dbl>       <dbl> <lgl>          <dbl> <fct>          
##  1    41 Atypical angina    130         204 FALSE            172 No             
##  2    57 Asymptomatic       120         354 FALSE            163 Yes            
##  3    56 Atypical angina    140         294 FALSE            153 No             
##  4    48 Non-anginal pain   130         275 FALSE            139 No             
##  5    58 Typical angina     150         283 TRUE             162 No             
##  6    50 Non-anginal pain   120         219 FALSE            158 No             
##  7    58 Non-anginal pain   120         340 FALSE            172 No             
##  8    66 Typical angina     150         226 FALSE            114 No             
##  9    69 Typical angina     140         239 FALSE            151 No             
## 10    71 Atypical angina    160         302 FALSE            162 No             
## # … with 293 more rows, and abbreviated variable name ¹​ExerciseInducedAngina

It was binded back to the original number of rows, but it lost the
columns it was split by. The into argument can be used to
handle this:

div_dat %>%
  fasten(
    into = c("Sex", "HeartDisease")
  )

## # A tibble: 303 × 9
##    Sex    HeartDisease   Age ChestPain        BP Chole…¹ Blood…² Maxim…³ Exerc…⁴
##    <chr>  <chr>        <dbl> <fct>         <dbl>   <dbl> <lgl>     <dbl> <fct>  
##  1 Female No              41 Atypical ang…   130     204 FALSE       172 No     
##  2 Female No              57 Asymptomatic    120     354 FALSE       163 Yes    
##  3 Female No              56 Atypical ang…   140     294 FALSE       153 No     
##  4 Female No              48 Non-anginal …   130     275 FALSE       139 No     
##  5 Female No              58 Typical angi…   150     283 TRUE        162 No     
##  6 Female No              50 Non-anginal …   120     219 FALSE       158 No     
##  7 Female No              58 Non-anginal …   120     340 FALSE       172 No     
##  8 Female No              66 Typical angi…   150     226 FALSE       114 No     
##  9 Female No              69 Typical angi…   140     239 FALSE       151 No     
## 10 Female No              71 Atypical ang…   160     302 FALSE       162 No     
## # … with 293 more rows, and abbreviated variable names ¹​Cholesterol,
## #   ²​BloodSugar, ³​MaximumHR, ⁴​ExerciseInducedAngina

The positions of the into values always lineup with the
level of the list hierarchy. So, for example, if you don’t care about
retaining the heart disease status, you can do this:

div_dat %>%
  fasten(
    into = "Sex"
  )

## # A tibble: 303 × 8
##    Sex      Age ChestPain           BP Cholesterol BloodSugar MaximumHR Exerci…¹
##    <chr>  <dbl> <fct>            <dbl>       <dbl> <lgl>          <dbl> <fct>   
##  1 Female    41 Atypical angina    130         204 FALSE            172 No      
##  2 Female    57 Asymptomatic       120         354 FALSE            163 Yes     
##  3 Female    56 Atypical angina    140         294 FALSE            153 No      
##  4 Female    48 Non-anginal pain   130         275 FALSE            139 No      
##  5 Female    58 Typical angina     150         283 TRUE             162 No      
##  6 Female    50 Non-anginal pain   120         219 FALSE            158 No      
##  7 Female    58 Non-anginal pain   120         340 FALSE            172 No      
##  8 Female    66 Typical angina     150         226 FALSE            114 No      
##  9 Female    69 Typical angina     140         239 FALSE            151 No      
## 10 Female    71 Atypical angina    160         302 FALSE            162 No      
## # … with 293 more rows, and abbreviated variable name ¹​ExerciseInducedAngina

In contrast, if you want to forgo the sex indicator, empty strings
will need to be used as placeholders so the names are applied at the
correct levels.

div_dat %>%
  fasten(
    into = c("", "HeartDisease")
  )

## # A tibble: 303 × 8
##    HeartDisease   Age ChestPain           BP Cholesterol Blood…¹ Maxim…² Exerc…³
##    <chr>        <dbl> <fct>            <dbl>       <dbl> <lgl>     <dbl> <fct>  
##  1 No              41 Atypical angina    130         204 FALSE       172 No     
##  2 No              57 Asymptomatic       120         354 FALSE       163 Yes    
##  3 No              56 Atypical angina    140         294 FALSE       153 No     
##  4 No              48 Non-anginal pain   130         275 FALSE       139 No     
##  5 No              58 Typical angina     150         283 TRUE        162 No     
##  6 No              50 Non-anginal pain   120         219 FALSE       158 No     
##  7 No              58 Non-anginal pain   120         340 FALSE       172 No     
##  8 No              66 Typical angina     150         226 FALSE       114 No     
##  9 No              69 Typical angina     140         239 FALSE       151 No     
## 10 No              71 Atypical angina    160         302 FALSE       162 No     
## # … with 293 more rows, and abbreviated variable names ¹​BloodSugar, ²​MaximumHR,
## #   ³​ExerciseInducedAngina
…
As shown above, the default behavior for these functions is to split
or bind “as much as possible”. However, it can be useful to have control
over the shape of the split. This is where the depth
argument comes in. Suppose you want the same data frames at the leaves
of the list, but only one level deep:

heart_disease %>%
  divide(
    Sex,
    HeartDisease,
    depth = 1
  )

## $`Female|No`
## # A tibble: 72 × 7
##      Age ChestPain           BP Cholesterol BloodSugar MaximumHR ExerciseInduc…¹
##    <dbl> <fct>            <dbl>       <dbl> <lgl>          <dbl> <fct>          
##  1    41 Atypical angina    130         204 FALSE            172 No             
##  2    57 Asymptomatic       120         354 FALSE            163 Yes            
##  3    56 Atypical angina    140         294 FALSE            153 No             
##  4    48 Non-anginal pain   130         275 FALSE            139 No             
##  5    58 Typical angina     150         283 TRUE             162 No             
##  6    50 Non-anginal pain   120         219 FALSE            158 No             
##  7    58 Non-anginal pain   120         340 FALSE            172 No             
##  8    66 Typical angina     150         226 FALSE            114 No             
##  9    69 Typical angina     140         239 FALSE            151 No             
## 10    71 Atypical angina    160         302 FALSE            162 No             
## # … with 62 more rows, and abbreviated variable name ¹​ExerciseInducedAngina
## 
## $`Male|No`
## # A tibble: 92 × 7
##      Age ChestPain           BP Cholesterol BloodSugar MaximumHR ExerciseInduc…¹
##    <dbl> <fct>            <dbl>       <dbl> <lgl>          <dbl> <fct>          
##  1    63 Typical angina     145         233 TRUE             150 No             
##  2    37 Non-anginal pain   130         250 FALSE            187 No             
##  3    56 Atypical angina    120         236 FALSE            178 No             
##  4    57 Asymptomatic       140         192 FALSE            148 No             
##  5    44 Atypical angina    120         263 FALSE            173 No             
##  6    52 Non-anginal pain   172         199 TRUE             162 No             
##  7    57 Non-anginal pain   150         168 FALSE            174 No             
##  8    54 Asymptomatic       140         239 FALSE            160 No             
##  9    49 Atypical angina    130         266 FALSE            171 No             
## 10    64 Typical angina     110         211 FALSE            144 Yes            
## # … with 82 more rows, and abbreviated variable name ¹​ExerciseInducedAngina
## 
## $`Female|Yes`
## # A tibble: 25 × 7
##      Age ChestPain           BP Cholesterol BloodSugar MaximumHR ExerciseInduc…¹
##    <dbl> <fct>            <dbl>       <dbl> <lgl>          <dbl> <fct>          
##  1    62 Asymptomatic       140         268 FALSE            160 No             
##  2    65 Asymptomatic       150         225 FALSE            114 No             
##  3    61 Asymptomatic       130         330 FALSE            169 No             
##  4    51 Asymptomatic       130         305 FALSE            142 Yes            
##  5    62 Asymptomatic       160         164 FALSE            145 No             
##  6    60 Asymptomatic       150         258 FALSE            157 No             
##  7    61 Asymptomatic       145         307 FALSE            146 Yes            
##  8    43 Asymptomatic       132         341 TRUE             136 Yes            
##  9    62 Non-anginal pain   130         263 FALSE             97 No             
## 10    63 Asymptomatic       150         407 FALSE            154 No             
## # … with 15 more rows, and abbreviated variable name ¹​ExerciseInducedAngina
## 
## $`Male|Yes`
## # A tibble: 114 × 7
##      Age ChestPain           BP Cholesterol BloodSugar MaximumHR ExerciseInduc…¹
##    <dbl> <fct>            <dbl>       <dbl> <lgl>          <dbl> <fct>          
##  1    67 Asymptomatic       160         286 FALSE            108 Yes            
##  2    67 Asymptomatic       120         229 FALSE            129 Yes            
##  3    63 Asymptomatic       130         254 FALSE            147 No             
##  4    53 Asymptomatic       140         203 TRUE             155 Yes            
##  5    56 Non-anginal pain   130         256 TRUE             142 Yes            
##  6    48 Atypical angina    110         229 FALSE            168 No             
##  7    58 Atypical angina    120         284 FALSE            160 No             
##  8    58 Non-anginal pain   132         224 FALSE            173 No             
##  9    60 Asymptomatic       130         206 FALSE            132 Yes            
## 10    40 Asymptomatic       110         167 FALSE            114 Yes            
## # … with 104 more rows, and abbreviated variable name ¹​ExerciseInducedAngina
…
This argument also works when binding data. Going back to the
original divided data frame, you may only want to bind the internal
lists.

div_dat %>%
  fasten(
    into = "HeartDisease",
    depth = 1
  )

## $Female
## # A tibble: 97 × 8
##    HeartDisease   Age ChestPain           BP Cholesterol Blood…¹ Maxim…² Exerc…³
##    <chr>        <dbl> <fct>            <dbl>       <dbl> <lgl>     <dbl> <fct>  
##  1 No              41 Atypical angina    130         204 FALSE       172 No     
##  2 No              57 Asymptomatic       120         354 FALSE       163 Yes    
##  3 No              56 Atypical angina    140         294 FALSE       153 No     
##  4 No              48 Non-anginal pain   130         275 FALSE       139 No     
##  5 No              58 Typical angina     150         283 TRUE        162 No     
##  6 No              50 Non-anginal pain   120         219 FALSE       158 No     
##  7 No              58 Non-anginal pain   120         340 FALSE       172 No     
##  8 No              66 Typical angina     150         226 FALSE       114 No     
##  9 No              69 Typical angina     140         239 FALSE       151 No     
## 10 No              71 Atypical angina    160         302 FALSE       162 No     
## # … with 87 more rows, and abbreviated variable names ¹​BloodSugar, ²​MaximumHR,
## #   ³​ExerciseInducedAngina
## 
## $Male
## # A tibble: 206 × 8
##    HeartDisease   Age ChestPain           BP Cholesterol Blood…¹ Maxim…² Exerc…³
##    <chr>        <dbl> <fct>            <dbl>       <dbl> <lgl>     <dbl> <fct>  
##  1 No              63 Typical angina     145         233 TRUE        150 No     
##  2 No              37 Non-anginal pain   130         250 FALSE       187 No     
##  3 No              56 Atypical angina    120         236 FALSE       178 No     
##  4 No              57 Asymptomatic       140         192 FALSE       148 No     
##  5 No              44 Atypical angina    120         263 FALSE       173 No     
##  6 No              52 Non-anginal pain   172         199 TRUE        162 No     
##  7 No              57 Non-anginal pain   150         168 FALSE       174 No     
##  8 No              54 Asymptomatic       140         239 FALSE       160 No     
##  9 No              49 Atypical angina    130         266 FALSE       171 No     
## 10 No              64 Typical angina     110         211 FALSE       144 Yes    
## # … with 196 more rows, and abbreviated variable names ¹​BloodSugar, ²​MaximumHR,
## #   ³​ExerciseInducedAngina
…
